module 2gis-test

go 1.21.6

require (
	github.com/go-chi/chi/v5 v5.0.12
	github.com/go-chi/render v1.0.3
	github.com/ilyakaznacheev/cleanenv v1.5.0
	github.com/jmoiron/sqlx v1.3.5
)

require (
	github.com/BurntSushi/toml v1.2.1 // indirect
	github.com/ajg/form v1.5.1 // indirect
	github.com/joho/godotenv v1.5.1 // indirect
	gopkg.in/yaml.v3 v3.0.1 // indirect
	olympos.io/encoding/edn v0.0.0-20201019073823-d3554ca0b0a3 // indirect
)
